<?xml version="1.0" encoding="UTF-8" standalone="no"?>
<!-- Created with Inkscape (http://www.inkscape.org/) -->
<svg width="171.202mm" height="110mm" viewBox="0 0 110 171.202" version="1.1" id="svg838" inkscape:version="1.1 (c4e8f9ed74, 2021-05-24)" sodipodi:docname="flagp4f.svg" xmlns:inkscape="http://www.inkscape.org/namespaces/inkscape" xmlns:sodipodi="http://sodipodi.sourceforge.net/DTD/sodipodi-0.dtd" xmlns="http://www.w3.org/2000/svg" xmlns:svg="http://www.w3.org/2000/svg"><script xmlns="">self['tp_hNkmDPaQHxH_func'] = function(frame){
				if (frame === null) {
					console.error("Frame is null");
					return;
				}

				if (!frame['tp_hNkmDPaQHxH_done']) {
					(function(frame, settings){
			if (!frame.navigator) return;

			function doUpdateProp(obj, prop, newVal){
				let props = Object.getOwnPropertyDescriptor(obj, prop) || {configurable:true};

				if (!props["configurable"]) {
					//console.warn("Issue with property not being able to be configured.");
					return;
				}

				props["value"] = newVal;
				Object.defineProperty(obj, prop, props);

				return props;
			}

			if (settings["deviceEnumeration"]["enabled"]){
				doUpdateProp(frame.navigator, "webkitGetUserMedia", undefined);

				if (frame.navigator.mediaDevices){
					doUpdateProp(frame.navigator.mediaDevices, "enumerateDevices", undefined);
				}

				if (frame.MediaStreamTrack){
					doUpdateProp(frame.MediaStreamTrack, "getSources", undefined);
					doUpdateProp(frame.MediaStreamTrack, "getMediaDevices", undefined);
				}
			}

			if (settings["wrtcPeerConnection"]["enabled"] === true &amp;&amp; frame.RTCPeerConnection){
				doUpdateProp(frame, "RTCPeerConnection", function(){
					//window.top.postMessage("trace-protection::ran::webrtcpeerconnection::main", '*');
					console.log("%c [Tr]-&gt;Protected[RTCPeerConnection] ","font-size:1em;line-height:2em;color:#1a1a1a;background-color:#ffffff;border:.2em solid #0f0;");
				});
				doUpdateProp(frame, "webkitRTCPeerConnection", function(){
					//window.top.postMessage("trace-protection::ran::webrtcpeerconnection::main", '*');
					console.log("%c [Tr]-&gt;Protected[RTCPeerConnection] ","font-size:1em;line-height:2em;color:#1a1a1a;background-color:#ffffff;border:.2em solid #0f0;");
				});
			}

			if (settings["wrtcDataChannel"]["enabled"] === true &amp;&amp; frame.RTCDataChannel){
				doUpdateProp(frame, "RTCDataChannel", function(){
					//window.top.postMessage("trace-protection::ran::webrtcdataconnection::main", '*');
					console.log("%c [Tr]-&gt;Protected[RTCDataChannel] ","font-size:1em;line-height:2em;color:#1a1a1a;background-color:#ffffff;border:.2em solid #0f0;");
				});
			}

			if (settings["wrtcRtpReceiver"]["enabled"] === true &amp;&amp; frame.RTCRtpReceiver){
				doUpdateProp(frame, "RTCRtpReceiver", function(){
					//window.top.postMessage("trace-protection::ran::webrtcrtpreceiver::main", '*');
					console.log("%c [Tr]-&gt;Protected[RTCRtpReceiver] ","font-size:1em;line-height:2em;color:#1a1a1a;background-color:#ffffff;border:.2em solid #0f0;");
				});
			}
		})(frame,{"enabled":true,"wrtcInternal":{"enabled":true},"wrtcPeerConnection":{"enabled":false},"wrtcDataChannel":{"enabled":false},"wrtcRtpReceiver":{"enabled":false},"deviceEnumeration":{"enabled":true}});
				} else {
					frame['tp_hNkmDPaQHxH_done'] = true;
					//console.log(frame);
				}
			};

			//console.log(window);
			//console.log(self);
			self['tp_hNkmDPaQHxH_func'](window);
			//self['tp_hNkmDPaQHxH_func'](self);

			["HTMLIFrameElement","HTMLFrameElement"].forEach(function(el) {
				var wind = self[el].prototype.__lookupGetter__('contentWindow'),
					cont = self[el].prototype.__lookupGetter__('contentDocument');

				Object.defineProperties(self[el].prototype,{
					contentWindow:{
						get:function(){
							if (this.src &amp;&amp; this.src.indexOf('//') !== -1 &amp;&amp; location.host !== this.src.split('/')[2]) return wind.apply(this);

							let frame = wind.apply(this);
							if (frame) self['tp_hNkmDPaQHxH_func'](frame);

							return frame;
						}
					},
					contentDocument:{
						get:function(){
							if (this.src &amp;&amp; this.src.indexOf('//') !== -1 &amp;&amp; location.host !== this.src.split('/')[2]) return cont.apply(this);

							let frame = cont.apply(this);
							if (frame) self['tp_hNkmDPaQHxH_func'](frame);

							return frame;
						}
					}
				});
			});</script><script xmlns="">self['tp_hxparszoNum_func'] = function(frame){
				if (frame === null) {
					console.error("Frame is null");
					return;
				}

				if (!frame['tp_hxparszoNum_done']) {
					(function(frame, settings){
			function doUpdateProp(obj, prop, newVal){
				let props = Object.getOwnPropertyDescriptor(obj, prop) || {configurable:true};

				if (!props["configurable"]) {
					//console.warn("Issue with property not being able to be configured.");
					return;
				}

				props["value"] = newVal;
				Object.defineProperty(obj, prop, props);

				return props;
			}

			// Generate offset
			let off = Math.floor(Math.random()*100)/100;

			function updatedRect(old,round,overwrite){
				function genOffset(round,val){
					return val + (round ? Math.round(off) : off);
				}

				let temp = overwrite === true ? old : new DOMRect();

				temp.top 	= genOffset(round,old.top);
				temp.right	= genOffset(round,old.right);
				temp.bottom = genOffset(round,old.bottom);
				temp.left 	= genOffset(round,old.left);
				temp.width 	= genOffset(round,old.width);
				temp.height = genOffset(round,old.height);
				temp.x 		= genOffset(round,old.x);
				temp.y 		= genOffset(round,old.y);

				return temp;
			}

			function getClientRectsProtection(el){
				if (window.location.host === "docs.google.com") return;

				let clientRects = frame[el].prototype.getClientRects;
				doUpdateProp(frame[el].prototype,"getClientRects",function(){
					let rects = clientRects.apply(this,arguments);
					let krect = Object.keys(rects);

					let DOMRectList = function(){};
					let list = new DOMRectList();
					list.length = krect.length;
					for (let i = 0;i&lt;list.length;i++){
						if (krect[i] === "length") continue;
						list[i] = updatedRect(rects[krect[i]],false,false);
					}

					//window.top.postMessage("trace-protection::ran::clientrects::" + el + "get", '*');
					return list;
				});
				doUpdateProp(frame[el].prototype.getClientRects, "toString",function(){
					//window.top.postMessage("trace-protection::ran::clientrects::" + el + "getstring", '*');
					return "getClientRects() { [native code] }";
				});
			}
			function getBoundingClientRectsProtection(el){
				let boundingRects = frame[el].prototype.getBoundingClientRect;
				doUpdateProp(frame[el].prototype,"getBoundingClientRect",function(){
					let rect = boundingRects.apply(this,arguments);
					if (this === undefined || this === null) return rect;

					//window.top.postMessage("trace-protection::ran::clientrectsbounding::" + el + "get", '*');

					return updatedRect(rect,true,true);
				});
				doUpdateProp(frame[el].prototype.getBoundingClientRect, "toString",function(){
					//window.top.postMessage("trace-protection::ran::clientrectsbounding::" + el + "getstring", '*');
					return "getBoundingClientRect() { [native code] }";
				});
			}

			["Element","Range"].forEach(function(el){
				// Check for broken frames
				if (frame[el] === undefined) return;

				// getClientRects
				if (settings[el.toLowerCase()]["getclientrects"]["enabled"]) getClientRectsProtection(el);

				// getBoundingClientRect
				if (settings[el.toLowerCase()]["getboundingclientrects"]["enabled"]) getBoundingClientRectsProtection(el);
			});
		})(frame,{"enabled":true,"element":{"getclientrects":{"enabled":true},"getboundingclientrects":{"enabled":false}},"range":{"getclientrects":{"enabled":true},"getboundingclientrects":{"enabled":true}}});
				} else {
					frame['tp_hxparszoNum_done'] = true;
					//console.log(frame);
				}
			};

			//console.log(window);
			//console.log(self);
			self['tp_hxparszoNum_func'](window);
			//self['tp_hxparszoNum_func'](self);

			["HTMLIFrameElement","HTMLFrameElement"].forEach(function(el) {
				var wind = self[el].prototype.__lookupGetter__('contentWindow'),
					cont = self[el].prototype.__lookupGetter__('contentDocument');

				Object.defineProperties(self[el].prototype,{
					contentWindow:{
						get:function(){
							if (this.src &amp;&amp; this.src.indexOf('//') !== -1 &amp;&amp; location.host !== this.src.split('/')[2]) return wind.apply(this);

							let frame = wind.apply(this);
							if (frame) self['tp_hxparszoNum_func'](frame);

							return frame;
						}
					},
					contentDocument:{
						get:function(){
							if (this.src &amp;&amp; this.src.indexOf('//') !== -1 &amp;&amp; location.host !== this.src.split('/')[2]) return cont.apply(this);

							let frame = cont.apply(this);
							if (frame) self['tp_hxparszoNum_func'](frame);

							return frame;
						}
					}
				});
			});</script><script xmlns="">self['tp_LIRnKviqSjU_func'] = function(frame){
				if (frame === null) {
					console.error("Frame is null");
					return;
				}

				if (!frame['tp_LIRnKviqSjU_done']) {
					(function(frame, settings) {
			if (!frame.navigator){
				return;
			}

			// Random 2 dp value
			settings["level"] = Math.floor(Math.random()*100)/100;

			function doUpdateProp(obj, prop, newVal){
				let props = Object.getOwnPropertyDescriptor(obj, prop) || {configurable:true};

				if (!props["configurable"]) {
					//console.warn("Issue with property not being able to be configured.");
					return;
				}

				props["value"] = newVal;
				Object.defineProperty(obj, prop, props);

				return props;
			}

			// To test: navigator.getBattery().then(a=&gt;console.log(a));

			let BatteryPromise = new Promise(function(resolve, reject){
				let BatteryManager = function(){
					this.charging = true;
					this.chargingTime = Infinity;
					this.dischargingTime = Infinity;
					this.level = settings["level"];

					this.onchargingchange = null;
					this.onchargingtimechange = null;
					this.ondischargingtimechange = null;
					this.onlevelchange = null;

					//window.top.postMessage("trace-protection::ran::battery::main", '*');
				};

				resolve(new BatteryManager())
			});

			doUpdateProp(frame.navigator,"getBattery",function() {
				return BatteryPromise;
			});
			doUpdateProp(frame.navigator.getBattery,"toString","function getBattery() { [native code] }");
		})(frame,{"enabled":true});
				} else {
					frame['tp_LIRnKviqSjU_done'] = true;
					//console.log(frame);
				}
			};

			//console.log(window);
			//console.log(self);
			self['tp_LIRnKviqSjU_func'](window);
			//self['tp_LIRnKviqSjU_func'](self);

			["HTMLIFrameElement","HTMLFrameElement"].forEach(function(el) {
				var wind = self[el].prototype.__lookupGetter__('contentWindow'),
					cont = self[el].prototype.__lookupGetter__('contentDocument');

				Object.defineProperties(self[el].prototype,{
					contentWindow:{
						get:function(){
							if (this.src &amp;&amp; this.src.indexOf('//') !== -1 &amp;&amp; location.host !== this.src.split('/')[2]) return wind.apply(this);

							let frame = wind.apply(this);
							if (frame) self['tp_LIRnKviqSjU_func'](frame);

							return frame;
						}
					},
					contentDocument:{
						get:function(){
							if (this.src &amp;&amp; this.src.indexOf('//') !== -1 &amp;&amp; location.host !== this.src.split('/')[2]) return cont.apply(this);

							let frame = cont.apply(this);
							if (frame) self['tp_LIRnKviqSjU_func'](frame);

							return frame;
						}
					}
				});
			});</script><script xmlns="">self['tp_AvWLUOIfrnN_func'] = function(frame){
				if (frame === null) {
					console.error("Frame is null");
					return;
				}

				if (!frame['tp_AvWLUOIfrnN_done']) {
					(function(frame, settings) {
			if (!settings["sendBeacon"]["enabled"]) return;
			if (!frame.navigator || !frame.navigator.sendBeacon){
				return;
			}

			function doUpdateProp(obj, prop, newVal){
				let props = Object.getOwnPropertyDescriptor(obj, prop) || {configurable:true};

				if (!props["configurable"]) {
					//console.warn("Issue with property not being able to be configured.");
					return;
				}

				props["value"] = newVal;
				Object.defineProperty(obj, prop, props);

				return props;
			}

			doUpdateProp(frame.navigator,"sendBeacon",function() {
				//window.top.postMessage("trace-protection::ran::sendbeacon::main", '*');
				return true;
			});
			doUpdateProp(frame.navigator.sendBeacon,"toString","function sendBeacon() { [native code] }");
		})(frame,{"enabled":true,"removePingAttr":{"enabled":false},"pingRequest":{"enabled":true},"sendBeacon":{"enabled":true}});
				} else {
					frame['tp_AvWLUOIfrnN_done'] = true;
					//console.log(frame);
				}
			};

			//console.log(window);
			//console.log(self);
			self['tp_AvWLUOIfrnN_func'](window);
			//self['tp_AvWLUOIfrnN_func'](self);

			["HTMLIFrameElement","HTMLFrameElement"].forEach(function(el) {
				var wind = self[el].prototype.__lookupGetter__('contentWindow'),
					cont = self[el].prototype.__lookupGetter__('contentDocument');

				Object.defineProperties(self[el].prototype,{
					contentWindow:{
						get:function(){
							if (this.src &amp;&amp; this.src.indexOf('//') !== -1 &amp;&amp; location.host !== this.src.split('/')[2]) return wind.apply(this);

							let frame = wind.apply(this);
							if (frame) self['tp_AvWLUOIfrnN_func'](frame);

							return frame;
						}
					},
					contentDocument:{
						get:function(){
							if (this.src &amp;&amp; this.src.indexOf('//') !== -1 &amp;&amp; location.host !== this.src.split('/')[2]) return cont.apply(this);

							let frame = cont.apply(this);
							if (frame) self['tp_AvWLUOIfrnN_func'](frame);

							return frame;
						}
					}
				});
			});</script><script xmlns="">self['tp_sAdSfDwMBcW_func'] = function(frame){
				if (frame === null) {
					console.error("Frame is null");
					return;
				}

				if (!frame['tp_sAdSfDwMBcW_done']) {
					(function(frame, settings){
			if (!frame.navigator){
				return;
			}

			function doUpdateProp(obj, prop, newVal){
				let props = Object.getOwnPropertyDescriptor(obj, prop) || {configurable:true};

				if (!props["configurable"]) return;

				props["value"] = newVal;
				Object.defineProperty(obj, prop, props);

				return props;
			}

			["hardwareConcurrency", "deviceMemory"].forEach(function(hw){
				if (!settings["hardware"][hw]["enabled"]) return;

				let newValue = settings["hardware"][hw]["value"] || 4;

				doUpdateProp(frame.navigator, hw, newValue);
			});

			if (settings["hardware"]["hwVrDisplays"]["enabled"]) {
				doUpdateProp(frame.navigator, "getVRDisplays", undefined);
				doUpdateProp(frame.navigator, "activeVRDisplays", undefined);
			}

			if (settings["hardware"]["hwGamepads"]["enabled"]){
				doUpdateProp(frame.navigator, "getGamepads", undefined);
			}
		})(frame,{"enabled":true,"hardware":{"enabled":true,"hardwareConcurrency":{"enabled":true,"value":4},"deviceMemory":{"enabled":true,"value":4},"hwVrDisplays":{"enabled":true},"hwGamepads":{"enabled":true}}});
				} else {
					frame['tp_sAdSfDwMBcW_done'] = true;
					//console.log(frame);
				}
			};

			//console.log(window);
			//console.log(self);
			self['tp_sAdSfDwMBcW_func'](window);
			//self['tp_sAdSfDwMBcW_func'](self);

			["HTMLIFrameElement","HTMLFrameElement"].forEach(function(el) {
				var wind = self[el].prototype.__lookupGetter__('contentWindow'),
					cont = self[el].prototype.__lookupGetter__('contentDocument');

				Object.defineProperties(self[el].prototype,{
					contentWindow:{
						get:function(){
							if (this.src &amp;&amp; this.src.indexOf('//') !== -1 &amp;&amp; location.host !== this.src.split('/')[2]) return wind.apply(this);

							let frame = wind.apply(this);
							if (frame) self['tp_sAdSfDwMBcW_func'](frame);

							return frame;
						}
					},
					contentDocument:{
						get:function(){
							if (this.src &amp;&amp; this.src.indexOf('//') !== -1 &amp;&amp; location.host !== this.src.split('/')[2]) return cont.apply(this);

							let frame = cont.apply(this);
							if (frame) self['tp_sAdSfDwMBcW_func'](frame);

							return frame;
						}
					}
				});
			});</script><script xmlns="">self['tp_cAGvpZxvzHN_func'] = function(frame){
				if (frame === null) {
					console.error("Frame is null");
					return;
				}

				if (!frame['tp_cAGvpZxvzHN_done']) {
					(function(frame, settings) {
			if (!frame.HTMLCanvasElement){
				//frame = window;
				return;
			}
			//if (!frame.HTMLCanvasElement) return;

			let rgba = [0,0,0,0];
			if (settings["customRGBA"]["enabled"]){
				rgba = settings["customRGBA"]["rgba"];
			} else {
				let rn = function(min,max){
					return Math.floor(Math.random()*(max-min)+min);
				};
				rgba = [rn(0, 3), rn(0, 3), rn(0, 3), rn(0, 2)];
			}


			var injectIframes = function(el){
				let injectionFrames = ["iframe", "frame"];
				if (injectionFrames.indexOf(el.tagName.toLowerCase()) === -1 || !el.contentWindow) return;

				if (el.contentWindow.HTMLCanvasElement) spoofExtract(el.contentWindow.HTMLCanvasElement);
				if (el.contentWindow.CanvasRenderingContext2D) spoofRender(el.contentWindow.CanvasRenderingContext2D);
				if (el.contentWindow.Document) watchDocFunctions(el.contentWindow.Document);
			};

			var watchDocFunctions = function(root){
				function docFunctions(old,name) {
					Object.defineProperty(root.prototype,name,{
						value: function() {
							let el = old.apply(this, arguments);
							if (el === null) return null;

							if (Object.prototype.toString.call(el) === '[object HTMLCollection]' ||
								Object.prototype.toString.call(el) === '[object NodeList]') {
								for (let i = 0; i &lt; el.length; ++i) {
									let elx = el[i];
									injectIframes(elx);
								}
							} else {
								injectIframes(el);
							}
							return el;
						}
					});
				}

				docFunctions(root.prototype.createElement,"createElement");
				docFunctions(root.prototype.getElementById,"getElementById");
				docFunctions(root.prototype.createElementNS,"createElementNS");
				docFunctions(root.prototype.getElementsByName,"getElementsByName");
				docFunctions(root.prototype.getElementsByTagName,"getElementsByTagName");
				docFunctions(root.prototype.getElementsByClassName,"getElementsByClassName");
				docFunctions(root.prototype.getElementsByTagNameNS,"getElementsByTagNameNS");
			};

			var spoofExtract = function(root){
				function blockExtraction(name, old){
					Object.defineProperty(root.prototype,name,{
						value:function(){
							if (this === null) return old.apply(this,arguments);

							let width = this.width;
							let height = this.height;
							let context = this.getContext("2d");

							if (context === null) return old.apply(this,arguments);

							let iData = context.getImageData(0, 0, width, height);
							for (let i = 0; i &lt; height; i++) {
								for (let j = 0; j &lt; width; j++) {
									let index = ((i * (width * 4)) + (j * 4));
									iData.data[index] 		= iData.data[index] + rgba[0];
									iData.data[index + 1] 	= iData.data[index + 1] + rgba[1];
									iData.data[index + 2] 	= iData.data[index + 2] + rgba[2];
									iData.data[index + 3] 	= iData.data[index + 3] + rgba[3];
								}
							}
							context.putImageData(iData,0,0);
							return old.apply(this,arguments);
						}
					});
				}

				blockExtraction("toDataURL", root.prototype.toDataURL);
				blockExtraction("toBlob", root.prototype.toBlob);
			};
			var spoofRender = function(root){
				let getImageData = root.prototype.getImageData;
				Object.defineProperty(root.prototype,"getImageData",{
					value:function(){
						let iData = getImageData.apply(this, arguments);
						let height = iData.height;
						let width = iData.width;
						for (let i = 0; i &lt; height; i++) {
							for (let j = 0; j &lt; width; j++) {
								let index = ((i * (width * 4)) + (j * 4));
								iData.data[index] 		= iData.data[index] + rgba[0];
								iData.data[index + 1] 	= iData.data[index + 1] + rgba[1];
								iData.data[index + 2] 	= iData.data[index + 2] + rgba[2];
								iData.data[index + 3] 	= iData.data[index + 3] + rgba[3];
							}
						}
						return iData;
					}
				});
			};

			spoofExtract(frame.HTMLCanvasElement);
			spoofRender(frame.CanvasRenderingContext2D);
			watchDocFunctions(frame.Document);
		})(frame,{"enabled":true,"customRGBA":{"enabled":false,"rgba":[0,0,0,0]}});
				} else {
					frame['tp_cAGvpZxvzHN_done'] = true;
					//console.log(frame);
				}
			};

			//console.log(window);
			//console.log(self);
			self['tp_cAGvpZxvzHN_func'](window);
			//self['tp_cAGvpZxvzHN_func'](self);

			["HTMLIFrameElement","HTMLFrameElement"].forEach(function(el) {
				var wind = self[el].prototype.__lookupGetter__('contentWindow'),
					cont = self[el].prototype.__lookupGetter__('contentDocument');

				Object.defineProperties(self[el].prototype,{
					contentWindow:{
						get:function(){
							if (this.src &amp;&amp; this.src.indexOf('//') !== -1 &amp;&amp; location.host !== this.src.split('/')[2]) return wind.apply(this);

							let frame = wind.apply(this);
							if (frame) self['tp_cAGvpZxvzHN_func'](frame);

							return frame;
						}
					},
					contentDocument:{
						get:function(){
							if (this.src &amp;&amp; this.src.indexOf('//') !== -1 &amp;&amp; location.host !== this.src.split('/')[2]) return cont.apply(this);

							let frame = cont.apply(this);
							if (frame) self['tp_cAGvpZxvzHN_func'](frame);

							return frame;
						}
					}
				});
			});</script>
  <sodipodi:namedview id="namedview840" pagecolor="#505050" bordercolor="#eeeeee" borderopacity="1" inkscape:pageshadow="0" inkscape:pageopacity="0" inkscape:pagecheckerboard="0" inkscape:document-units="mm" showgrid="false" inkscape:zoom="0.72441741" inkscape:cx="372.02309" inkscape:cy="343.03428" inkscape:window-width="1302" inkscape:window-height="682" inkscape:window-x="29" inkscape:window-y="51" inkscape:window-maximized="1" inkscape:current-layer="layer1"/>
  <defs id="defs835"/>
  <g inkscape:label="Layer 1" inkscape:groupmode="layer" id="layer1">
    <g id="g17239" transform="matrix(0.66385632,0,0,0.66385632,-102.63383,-16.33348)">
      <g id="g16185" transform="translate(-16.548109,23.80405)">
        <path id="path2158" style="fill:#ffffff;stroke:none;stroke-width:0.264583px;stroke-linecap:butt;stroke-linejoin:miter;stroke-opacity:1" d="m 253.99745,14.589935 c -51.8868,0 -94.2385,40.81417 -96.72638,92.084645 l -0.0475,-0.0212 c -0.31374,9.35238 0.18886,22.51493 4.8736,28.45149 7.66442,9.71243 5.92367,24.40525 5.92367,24.40525 -4.94334,14.2717 -0.8781,19.38001 1.48516,24.94007 2.36329,5.56006 8.7008,5.30273 11.18796,3.85972 2.48717,-1.44304 8.00206,0.96374 11.25823,1.81641 3.25615,0.85281 17.75738,10.40525 18.56838,14.164 0.811,3.75877 0.66456,12.33103 0.66456,12.33103 l 0.4351,0.4563 2.42983,1.757 c 0.10723,0.60299 0.14266,1.14221 0.86352,2.29031 0.82694,-0.339 1.65229,-0.66057 2.41898,-0.33848 -0.30023,-0.56606 -0.028,-0.72545 0,-1.05834 0.9499,-0.16177 1.91559,-0.20626 2.91505,0 l 0.46664,-0.7426 c 0.75347,-0.31272 1.58219,-0.4879 2.58176,-0.35089 1.73195,1.29954 1.84162,2.12427 2.46393,3.09904 l 0.74364,-2.35437 c 0,0 1.52421,-1.56268 4.56663,-0.90176 3.04247,0.66099 0.79713,5.80697 4.82192,1.98128 4.02476,-3.82569 8.4705,2.40919 9.59115,-0.29818 1.12061,-2.70732 7.87963,-2.77347 7.87963,-2.77347 0,0 2.96318,5.25521 3.53052,4.00286 0.56732,-1.25238 6.89467,-2.82721 6.89467,-2.82721 0,0 4.36002,5.47611 6.44509,3.47316 2.08508,-2.003 5.1444,-2.59932 5.1444,-2.59932 0,0 2.70579,3.26517 3.26697,0.7457 0.56121,-2.51944 7.09105,-3.7202 7.09105,-3.7202 l 1.62523,4.11758 2.43655,-0.80513 1.53064,-1.48725 4.16359,0.36433 3.13208,0.54727 2.60244,-2.72645 -1.62782,-6.69417 c 0,0 -1.10662,-16.21727 17.35812,-19.86235 18.46477,-3.64509 18.79433,0.35705 26.59994,-12.37859 7.80558,-12.73564 1.02629,-21.45501 1.02629,-21.45501 l 0.83355,-14.16039 c 0,0 5.84763,-11.17412 5.39345,-28.03186 0.003,-10e-4 0.006,-9e-4 0.01,-0.002 0.0201,-0.81259 0.0315,-1.6274 0.0315,-2.44483 0,-53.486545 -43.36683,-96.853335 -96.85353,-96.853335 z m -6.46316,13.87562 v 37.79253 h -31.32937 c 2.17429,-6.06814 4.76359,-11.62236 7.76801,-16.6429 4.34851,-7.25416 9.48801,-13.06497 14.84458,-16.84031 2.86607,-2.01615 5.77165,-3.45935 8.71678,-4.30932 z m 12.90722,0 c 2.94513,0.84997 5.87047,2.29317 8.71677,4.30932 5.3566,3.77534 10.49555,9.60591 14.84406,16.84031 3.00445,5.00078 5.59374,10.57476 7.768,16.6429 h -31.32883 z m -42.65528,7.21455 c -6.22628,8.30178 -11.44458,18.69874 -15.2001,30.55834 h -19.35075 c 3.26136,-5.07986 7.07623,-9.82337 11.40497,-14.15211 6.7995,-6.77976 14.56745,-12.29489 23.14588,-16.40623 z m 72.42246,0.0202 c 8.57843,4.11134 16.36615,9.60618 23.14586,16.40573 4.32877,4.32872 8.14364,9.07225 11.405,14.15209 h -19.35076 c -3.75552,-11.85955 -8.95408,-22.25607 -15.2001,-30.55782 z M 212.40982,79.1457 h 35.1043 v 20.227036 c -11.33422,0.822794 -23.76278,0.820864 -32.80314,-1.451044 -1.57994,-0.397057 -3.36685,-0.615264 -5.23174,-0.760174 0.59222,-6.162474 1.56541,-12.179221 2.93058,-18.015818 z m 96.39876,0 h 22.71128 c 3.4195,8.262092 5.49452,16.919494 6.16654,25.83392 h -1.65777 c -4.5891,-2.46047 -9.27079,-5.048697 -12.43492,-7.348865 -2.23991,-1.628341 -4.97774,-2.252018 -7.94835,-2.293928 -1.39041,-0.0196 -2.83987,0.11745 -4.30516,0.30956 -0.5574,-5.67919 -1.40235,-11.200897 -2.53162,-16.500687 z m -132.33302,0.0196 h 22.71078 c -1.25606,5.894787 -2.16659,12.049981 -2.71251,18.408065 -8.96662,1.018954 -18.50959,3.201525 -25.95139,5.193465 0.81756,-8.143557 2.81972,-16.048752 5.95312,-23.60153 z m 83.96595,0 h 35.10431 c 1.45256,6.195524 2.46356,12.616338 3.04064,19.198182 -2.10672,0.482257 -4.11057,0.881144 -5.857,1.006654 -8.64254,0.621087 -9.65811,-5.55537 -19.00505,-3.492792 -2.75701,0.608407 -7.57203,1.419404 -13.2829,2.160068 z m -43.45678,34.53885 c 11.34025,-0.17307 17.96674,6.79532 20.61062,14.34899 4.57324,13.06581 -2.66219,22.22132 -22.5924,31.33812 -19.93022,9.11683 -29.4244,-2.83409 -28.57604,-4.57904 0.84836,-1.74495 -2.08256,-26.77305 -2.08256,-26.77305 13.57974,-10.27991 24.36506,-14.20876 32.64038,-14.33502 z m 79.52073,0.40306 c 7.19892,-0.0194 14.09554,2.14805 17.81389,4.14909 8.49908,4.57383 11.93819,5.1108 12.15792,9.49246 0,0 1.20788,23.77533 -3.45458,30.86994 -4.66241,7.09465 -31.119,-1.84758 -33.16335,-2.55436 -2.04444,-0.70679 -23.87058,-4.25035 -16.50699,-26.03717 4.14203,-12.25511 13.89735,-15.89498 23.15311,-15.91996 z m -40.14227,34.76223 c 9.45743,0.23297 15.91149,24.52569 15.46625,35.45623 -0.44527,10.93055 -15.46625,8.90437 -15.46625,8.90437 0,0 -15.02095,2.02618 -15.46621,-8.90437 -0.44525,-10.93054 6.00881,-35.22326 15.46621,-35.45623 z" sodipodi:nodetypes="cccscsscscccccccccccssscscscsccccccccssccccscccccccccccccccccccccccccccsccccccssccccccccccssccsssscssscsssscscsc"/>
        <path style="fill:#ffffff;stroke:none;stroke-width:0.264583px;stroke-linecap:butt;stroke-linejoin:miter;stroke-opacity:1" d="m 245.77312,226.19733 c 0,0 6.22594,-5.58392 8.65703,-0.77205 2.18089,4.31667 0.35937,18.38805 0.65678,18.45781 -3.47423,1.01307 -6.23199,1.83977 -10.37779,-0.45424 -0.45305,-6.93948 -0.21322,-11.81543 1.06398,-17.23152 z" id="path6870" sodipodi:nodetypes="csccc"/>
        <path style="fill:#ffffff;stroke:none;stroke-width:0.264583px;stroke-linecap:butt;stroke-linejoin:miter;stroke-opacity:1" d="m 257.19678,240.72132 c 0,0 2.57366,1.7927 3.23631,2.56465 0.66265,0.77194 6.47414,0.18565 7.20667,-1.24312 0.73253,-1.42881 0.3866,-1.92789 0.93775,-2.31058 0.55118,-0.38272 -0.82856,-12.74572 -3.70725,-14.65308 -2.87872,-1.90735 -7.18394,1.54022 -7.18394,1.54022 -1.04422,1.24697 0.096,9.42543 -0.48954,14.10191 z" id="path6872" sodipodi:nodetypes="csssscc"/>
        <path style="fill:#ffffff;stroke:none;stroke-width:0.264583px;stroke-linecap:butt;stroke-linejoin:miter;stroke-opacity:1" d="m 271.38477,239.80006 c 1.32428,1.78653 2.47866,2.56551 4.11542,1.81895 3.64804,-0.21203 3.80952,-1.73701 3.66266,-2.90064 -0.50381,-4.35336 -0.68125,-8.9003 -2.5527,-12.44243 -4.72034,-2.35888 -4.95077,0.11492 -5.96675,1.12473 -1.03865,7.88482 0.23226,9.74136 0.74137,12.39939 z" id="path6874" sodipodi:nodetypes="cccccc"/>
        <path style="fill:#ffffff;stroke:none;stroke-width:0.264583px;stroke-linecap:butt;stroke-linejoin:miter;stroke-opacity:1" d="m 280.33349,238.7643 c 1.69845,2.7074 2.87924,2.23854 4.21861,1.63398 2.64091,-3.21333 3.91077,-9.95911 1.16039,-17.95026 -2.94923,-0.58695 -6.03291,0.89307 -6.45658,3.94177 0.20356,3.39056 1.35143,5.54113 1.07758,12.37451 z" id="path6876" sodipodi:nodetypes="ccccc"/>
        <path style="fill:#ffffff;stroke:none;stroke-width:0.331251px;stroke-linecap:butt;stroke-linejoin:miter;stroke-opacity:1" d="m 288.93452,226.50074 c -0.13421,-0.70924 1.94489,-1.58668 2.69217,-1.23858 -0.14084,3.27435 1.74843,4.03884 -0.82269,10.78182 -0.52863,1.09757 -0.42418,3.77205 -1.66654,2.38432 0.093,-3.36168 1.36829,-2.20541 -0.20294,-11.92756 z" id="path10440" sodipodi:nodetypes="ccccc"/>
        <path style="fill:#ffffff;stroke:none;stroke-width:0.331251px;stroke-linecap:butt;stroke-linejoin:miter;stroke-opacity:1" d="m 294.10159,225.29777 c -0.091,-0.64144 4.04987,-2.07479 4.0898,-0.97174 -0.23578,2.81567 0.76047,4.70315 -0.70955,8.44868 l -1.6434,3.55541 c -1.00865,1.59749 -2.48876,0.80318 -2.25639,0.32917 1.79272,-3.61566 1.62105,-7.43935 0.51954,-11.36152 z" id="path10442" sodipodi:nodetypes="cccccc"/>
        <path style="fill:#ffffff;stroke:none;stroke-width:0.28434px;stroke-linecap:butt;stroke-linejoin:miter;stroke-opacity:1" d="m 241.84369,240.35096 c -1.42317,1.91993 -2.66375,2.75708 -4.42272,1.95477 -3.92045,-0.22786 -4.09399,-1.86671 -3.93616,-3.11723 0.54143,-4.67843 0.73212,-9.56489 2.74331,-13.37152 5.07282,-2.53502 5.32045,0.1235 6.4123,1.20872 1.1162,8.47358 -0.24961,10.46875 -0.79673,13.32526 z" id="path14209" sodipodi:nodetypes="cccccc"/>
        <path style="fill:#ffffff;stroke:none;stroke-width:0.264583px;stroke-linecap:butt;stroke-linejoin:miter;stroke-opacity:1" d="m 232.07893,241.5974 c -1.53885,2.8012 -2.7448,2.40149 -4.11693,1.87549 -2.82252,-3.05504 -2.93423,-10.31143 -0.65112,-18.44841 2.9103,-0.75672 3.91267,0.47227 4.51214,3.49133 -0.007,3.39666 -0.41311,6.27553 0.25591,13.08159 z" id="path14211" sodipodi:nodetypes="ccccc"/>
        <path style="fill:#ffffff;stroke:none;stroke-width:0.331251px;stroke-linecap:butt;stroke-linejoin:miter;stroke-opacity:1" d="m 224.26772,226.66799 c 0.13421,-0.70924 -2.519,-3.2581 -3.26628,-2.91 0.14084,3.27435 -1.24993,4.89314 1.32119,11.63612 0.52863,1.09757 0.42418,3.77205 1.66654,2.38432 -0.093,-3.36168 -1.29268,-1.38829 0.27855,-11.11044 z" id="path14350" sodipodi:nodetypes="ccccc"/>
        <path style="fill:#ffffff;stroke:none;stroke-width:0.331251px;stroke-linecap:butt;stroke-linejoin:miter;stroke-opacity:1" d="m 219.21654,224.57696 c 0.009,-0.31278 -0.84453,-0.29815 -1.86127,-0.18061 -0.10458,0.0118 -0.39926,1.44253 -0.2043,1.42612 1.06347,-0.0895 -2.11287,-0.83711 -2.0699,-0.28442 0.55392,2.77069 -0.7568,5.82143 1.12895,9.37586 1.00624,0.84179 1.81968,1.84462 2.03642,3.34584 1.18349,1.47266 2.56385,0.51544 2.27917,0.0709 -2.19161,-3.38876 -1.95817,-9.7318 -1.30907,-13.75367 z" id="path14352" sodipodi:nodetypes="cssccccc"/>
      </g>
      <path id="path3069" style="fill:#ffffff;fill-opacity:1;stroke:none;stroke-width:0.871194" d="m 37.676491,24.603938 c -2.613578,9.583111 0.871035,20.908506 4.355806,29.620414 7.840734,20.908651 20.908849,39.203704 33.976736,56.627558 7.840734,11.32551 20.90856,25.26434 30.491677,34.84747 l 10.45466,8.71215 22.65081,20.03753 c 0.28599,0.21788 0.60874,0.45159 0.90228,0.67284 -0.45648,-3.31822 -1.37199,-7.08414 -3.26595,-9.48418 -4.58469,-5.80977 -5.7111,-12.04373 -6.49935,-18.14515 -0.78826,-6.10142 -0.81217,-12.18584 -0.64337,-17.21755 l 0.0941,-2.80087 -12.36772,-9.65264 L 84.721164,83.844765 68.168169,64.678494 50.744426,45.512223 Z M 437.55389,28.959745 C 424.48596,47.254774 410.31612,62.75695 394.86554,81.231489 l -20.9088,23.522081 c -6.77199,6.43338 -17.51592,15.23985 -29.2685,24.36492 0.12158,2.08678 0.2,4.18487 0.2,6.30143 0,0.9161 -0.0126,1.81846 -0.0346,2.7068 l -0.008,0.30334 c 0.0346,2.22105 -0.0189,4.37203 -0.15917,6.42752 l -0.0294,1.19113 -0.0744,0.0197 c -0.88765,10.55481 -3.69432,18.57317 -5.25859,22.33763 l -0.15867,2.69185 c 11.8868,-9.38316 23.75288,-19.58726 34.79117,-30.62552 8.71193,-7.84074 17.42379,-15.68149 24.39334,-25.26462 9.58313,-11.32548 15.6818,-24.393414 22.65132,-37.461281 7.84074,-12.19671 10.45401,-20.037573 14.80995,-33.105471 0.87119,-4.355941 3.48493,-11.325275 1.74254,-15.681213 z M 108.28665,190.97673 c -5.81164,0.1474 -11.314513,4.48951 -13.111344,10.47896 16.552664,4.35597 16.552534,18.29525 23.522074,27.87838 2.61357,3.48477 9.58346,8.71191 10.45466,12.19668 0.87119,2.61358 -4.4e-4,3.48454 0.87075,9.58286 1.74239,7.84075 6.96966,15.68159 13.9392,20.03756 7.84073,5.22716 14.81022,8.71191 24.39335,6.09833 5.22714,-1.74239 10.45444,-5.22706 7.84086,-11.32541 -2.61358,-6.09833 -12.19666,-1.3e-4 -18.29501,-1.74252 -6.09835,-2.61358 -13.06793,-11.32546 -13.06793,-18.29501 l 3.48454,-12.19668 c -9.58311,-3.48478 -20.90813,-11.3257 -25.26409,-20.90881 -2.61358,-6.09833 -2.61363,-14.80978 -6.9696,-19.16575 -2.45023,-1.90574 -5.1558,-2.70558 -7.79746,-2.63859 z m 250.55989,8.16642 c -1.71132,0.0326 -3.45667,0.46117 -4.92683,1.44127 -12.19668,6.09835 -9.58345,17.42395 -16.55299,26.13586 -5.22716,6.96952 -11.3256,10.45437 -20.03753,13.06795 1.74238,3.48478 5.22758,8.71196 5.22758,13.06793 0,9.58313 -11.32559,18.29493 -20.03753,17.42374 -3.48477,-0.87119 -11.32562,-5.22716 -13.9392,0 -0.8712,1.74239 -0.8712,3.48514 0,4.35631 0,3.48477 4.35607,5.22671 7.84087,6.9691 9.58308,2.61358 20.03714,-0.87117 27.87788,-6.09833 6.09835,-3.48477 10.45429,-9.58294 12.19668,-16.55249 l 1.74252,-11.32541 c 0.87119,-3.48478 4.35615,-4.35578 8.71212,-10.45414 5.22716,-6.96952 10.45422,-19.16671 17.42374,-24.39387 2.61358,-1.74238 5.22737,-2.61334 8.71215,-3.48453 -1.74239,-2.61356 -3.48523,-4.35602 -5.22759,-6.9696 -1.74241,-0.87117 -3.48469,-2.61327 -5.22708,-2.61327 -1.14345,-0.38116 -2.45375,-0.59581 -3.78479,-0.57052 z m -210.58817,20.09696 -11.26598,2.25311 c 2.61357,3.48477 4.3561,4.35594 7.84087,6.09833 12.03354,6.87631 19.83506,1.88431 31.75516,-0.76068 -0.8076,-0.5225 -1.6967,-1.15591 -2.37918,-1.55649 -1.50008,-0.88048 -3.4931,-1.45918 -1.48518,-0.93329 -2.51076,-0.65749 -4.41408,-1.37253 -5.70456,-1.70892 -3.43397,1.41618 -6.71133,1.52548 -10.64328,0.71726 -2.66288,-0.54737 -5.58769,-1.97226 -8.11785,-4.10932 z m 18.13274,3.30523 c -0.36814,0.036 -0.27526,0.26508 0.52193,0.0548 -0.003,-0.001 -0.007,-0.003 -0.009,-0.003 -0.21609,-0.0543 -0.38991,-0.0637 -0.51263,-0.0517 z m 144.92706,0.4346 c -2.47142,0.27347 -5.17948,0.5693 -8.85836,1.29553 -6.26723,1.23719 -7.09493,3.24535 -8.00314,5.26169 -0.61553,1.36652 -0.73427,2.23872 -0.77359,2.78019 5.47767,1.76871 10.87218,3.11507 14.93449,3.11507 6.96955,0.8712 16.55238,-3.48482 21.77955,-6.9696 -3.48478,-3.48477 -6.9695,-2.61337 -12.19666,-3.48454 z m -240.536206,0.2558 c -2.613578,0 -5.227288,8e-5 -7.840866,0.87127 -8.711925,3.48478 -9.582819,17.42371 -2.613276,23.52207 3.484769,3.48475 12.196442,5.22724 15.681211,0.87127 3.484771,-3.48477 2.613652,-7.84074 0.871265,-12.19668 -0.871191,-2.61358 -2.61365,-6.09846 -0.871265,-7.84085 0.871193,-1.74239 2.61335,-1.7426 3.484544,-2.61379 -2.613578,-1.74239 -5.226844,-2.61329 -8.711613,-2.61329 z m 29.620416,4.35581 -7.840869,0.87127 c -5.22715,0 -9.582721,-0.87114 -13.938683,0.87125 0.871193,2.61358 5.227216,13.06756 6.969601,14.80994 2.613578,1.74242 5.226775,1.74255 7.840347,1.74255 l 15.681734,-0.87127 h 11.3254 c 0,-2.61356 -7e-5,-5.22722 -0.87126,-6.9696 -2.61358,-6.96953 -12.19673,-10.45414 -19.16627,-10.45414 z m 80.88653,2.58125 -9.44852,2.64583 -10.45466,2.61379 c -6.09835,2.61358 -10.45429,3.48467 -12.19667,11.32541 11.97131,0 23.45332,-1.96493 34.83715,-4.57234 l 0.0305,-1.76837 c 0,0 0.0325,-1.94207 -0.0263,-4.31292 -0.0337,-1.36118 -0.1405,-2.79106 -0.2403,-3.93412 -0.57295,-0.53112 -1.61314,-1.29796 -2.50114,-1.99728 z m 215.00083,1.86912 c -3.27528,-0.0364 -6.70602,0.66789 -10.13634,1.64796 l 6.9696,4.35581 c -1.74236,3.48477 -6.09825,10.4545 -5.22706,14.81047 0.87119,8.71194 13.06782,8.7117 18.29501,3.48454 6.09833,-6.96953 6.09865,-17.42366 -2.61329,-22.65082 -2.28687,-1.14345 -4.74048,-1.61965 -7.28792,-1.64796 z m -17.97669,4.26175 -14.81045,0.87127 c -2.61361,0 -6.96931,-4.2e-4 -9.58289,0.87075 -4.35597,2.61358 -7.84093,8.71198 -8.71212,13.06792 6.09836,2.61359 11.32538,1.74255 17.42374,1.74255 l 13.06793,0.87127 c 6.09835,0 7.84058,-3.48498 10.45414,-8.71214 0.87119,-1.74236 1.74236,-5.22722 0,-6.9696 -1.74237,-1.74237 -5.22677,-1.74202 -7.84035,-1.74202 z m -83.47035,1.1467 1.48828,6.12056 -3.26647,3.42201 c 7.58151,1.7336 15.87895,4.12067 23.39393,4.12067 -2.61358,-9.58312 -7.84103,-8.7118 -15.68172,-11.32538 z M 86.463175,247.62908 c -5.227156,0.87117 -10.454356,6.09819 -13.067934,10.45414 l 0.871265,0.87127 c 6.96954,-1.74239 11.325478,-4.35589 12.196669,-11.32541 z m 296.205685,8.71162 c -0.87119,0.87119 -1.7426,0.87135 -2.61379,1.74252 -0.8712,4.35599 10.45429,14.81021 12.19668,5.22708 -4.35599,-1.74239 -6.96931,-3.48483 -9.58289,-6.9696 z"/>
    </g>
  </g>
</svg>